{
    "languageserver": {
        "ccls": {
            "command": "docker run -i --rm -v /tmp:/tmp -v $(git rev-parse --show-toplevel):/home/prog ccls ccls",
            "shell": true,
            "filetypes": ["c", "cc", "cpp", "c++", "objc", "objcpp"],
            "rootPatterns": [".ccls", "compile_commands.json", ".git/", ".hg/"],
            "initializationOptions": {
                "cache": {
                    "directory": "/tmp/ccls"
                },
                "compilationDatabaseDirectory": "build",
                "highlight": { "lsRanges" : true },
                "clang": {
                    "pathMappings": ["/home/prog/>/home/che/scratch/alecto/tuplet/"]
                }
            },
            "trace.server": "verbose"
        },
        "cmake": {
            "command": "cmake-language-server",
            "filetypes": ["cmake"],
            "rootPatterns": ["build/"],
            "initializationOptions": {
                "buildDirectory": "build"
            }
        },
        "terraform": {
            "command": "terraform-lsp",
            "filetypes": ["terraform"],
            "initializationOptions": {}
        }
    }
}
